{
  "points" : {
    "filter_alarm_pressure_status" : {
      "ref" : "BV11.present_value"
    },
    "filter_differential_pressure_setpoint" : {
      "set_value" : 98
    },
    "filter_differential_pressure_sensor" : {
      "ref" : "AV12.present_value"
    }
  },
  "sample_limit_sec" : 1,
  "sample_rate_sec" : 5,
  "timestamp" : "2022-11-29T13:51:11.205Z",
  "version" : "1.3.14-93-g714f5f4-dirty"
}