{
  "points" : {
    "filter_alarm_pressure_status" : {
      "ref" : "BV11.present_value"
    },
    "filter_differential_pressure_setpoint" : {
      "set_value" : 98
    },
    "filter_differential_pressure_sensor" : {
      "ref" : "AV12.present_value",
      "set_value" : 15
    }
  },
  "timestamp" : "2022-11-07T17:41:42.352Z",
  "version" : "1.3.14-93-g714f5f4-dirty"
}