{
  "points" : {
    "filter_alarm_pressure_status" : {
      "present_value" : false
    },
    "filter_differential_pressure_setpoint" : {
      "present_value" : 98
    },
    "filter_differential_pressure_sensor" : {
      "present_value" : 10
    }
  },
  "timestamp" : "2022-11-07T17:41:00.004Z",
  "version" : "1.4.0"
}