{
  "points" : {
    "filter_alarm_pressure_status" : { },
    "filter_differential_pressure_setpoint" : {
      "value_state" : "applied"
    },
    "filter_differential_pressure_sensor" : { }
  },
  "timestamp" : "2022-11-07T17:41:00Z",
  "version" : "1.4.0"
}