5 schema violations found
  /deviceId: ECMA 262 regex "^[A-Z]{2,6}-[0-9]{1,6}$" does not match input string "fcu-1"
  /deviceNumId: ECMA 262 regex "^[0-9]+$" does not match input string "921302198324X"
  /deviceRegistryId: ECMA 262 regex "^[a-zA-Z][-a-zA-Z0-9._+~%]*[a-zA-Z0-9]$" does not match input string "test/registry"
  /subType: instance value (5) not found in enum (possible values: ["event","command","state","config","model"])
  object has missing required properties (["projectId","subFolder"])
